{
  "base_url": "/user/yasmineutt-mt15-2021-tp4-acm-rvrc5yfx/",
  "hostname": "0.0.0.0",
  "notebook_dir": "/home/jovyan",
  "password": false,
  "pid": 18,
  "port": 8888,
  "secure": false,
  "sock": "",
  "token": "S8II6x8BTuKcD5MXnN_rmQ",
  "url": "http://0.0.0.0:8888/user/yasmineutt-mt15-2021-tp4-acm-rvrc5yfx/"
}